{
  "$schema": "http://json-schema.org/draft-07/schema#",
  "description": "Security policies",
  "type": "object",
  "additionalProperties": false,
  "properties": {
    "scan_execution_policies_action_limit": {
      "type": "integer",
      "minimum": 0,
      "maximum": 20,
      "description": "Maximum number of actions per scan execution policy"
    }
  }
}
